<svg width="62" height="63" viewBox="0 0 62 63" fill="none" xmlns="http://www.w3.org/2000/svg">
<g opacity="0.5" filter="url(#filter0_d_6393_198807)">
<rect x="14" y="11" width="34" height="34" rx="17" fill="#999999"/>
</g>
<path d="M30.8594 34.3334C31.6587 34.3334 32.3469 33.8506 32.6489 33.1615H29.0698C29.3718 33.8506 30.0601 34.3334 30.8594 34.3334Z" fill="white"/>
<path d="M34.8958 27.4548V26.599C34.8958 24.7807 33.6872 23.2396 32.0312 22.7362V22.1719C32.0312 21.5257 31.5055 21 30.8594 21C30.2132 21 29.6875 21.5257 29.6875 22.1719V22.7362C28.0315 23.2396 26.8229 24.7807 26.8229 26.599V27.4548C26.8229 29.052 26.2141 30.5665 25.1087 31.7193C25.0004 31.8322 24.9699 31.9989 25.0313 32.1429C25.0927 32.2869 25.2341 32.3803 25.3907 32.3803H36.3281C36.4846 32.3803 36.626 32.2869 36.6874 32.1429C36.7488 31.9989 36.7184 31.8322 36.61 31.7193C35.5046 30.5665 34.8958 29.0519 34.8958 27.4548ZM31.25 22.5815C31.1214 22.5691 30.9911 22.5625 30.8594 22.5625C30.7276 22.5625 30.5973 22.5691 30.4688 22.5815V22.1719C30.4688 21.9565 30.644 21.7813 30.8594 21.7813C31.0748 21.7813 31.25 21.9565 31.25 22.1719V22.5815Z" fill="white"/>
<path d="M35.9376 26.5991C35.9376 26.8148 36.1125 26.9897 36.3282 26.9897C36.5439 26.9897 36.7188 26.8148 36.7188 26.5991C36.7188 25.034 36.1093 23.5625 35.0027 22.4558C34.8501 22.3033 34.6028 22.3033 34.4502 22.4558C34.2977 22.6084 34.2977 22.8557 34.4502 23.0083C35.4094 23.9674 35.9376 25.2426 35.9376 26.5991Z" fill="white"/>
<path d="M25.3906 26.9897C25.6064 26.9897 25.7813 26.8148 25.7813 26.599C25.7813 25.2426 26.3095 23.9674 27.2686 23.0083C27.4211 22.8557 27.4211 22.6084 27.2686 22.4558C27.1161 22.3033 26.8687 22.3033 26.7162 22.4558C25.6095 23.5625 25 25.0339 25 26.599C25 26.8148 25.1749 26.9897 25.3906 26.9897Z" fill="white"/>
<defs>
<filter id="filter0_d_6393_198807" x="0.382978" y="0.787234" width="61.234" height="61.234" filterUnits="userSpaceOnUse" color-interpolation-filters="sRGB">
<feFlood flood-opacity="0" result="BackgroundImageFix"/>
<feColorMatrix in="SourceAlpha" type="matrix" values="0 0 0 0 0 0 0 0 0 0 0 0 0 0 0 0 0 0 127 0" result="hardAlpha"/>
<feOffset dy="3.40426"/>
<feGaussianBlur stdDeviation="6.80851"/>
<feColorMatrix type="matrix" values="0 0 0 0 0.945727 0 0 0 0 0.945727 0 0 0 0 0.945727 0 0 0 0.25 0"/>
<feBlend mode="normal" in2="BackgroundImageFix" result="effect1_dropShadow_6393_198807"/>
<feBlend mode="normal" in="SourceGraphic" in2="effect1_dropShadow_6393_198807" result="shape"/>
</filter>
</defs>
</svg>
