<svg width="187" height="149" viewBox="0 0 187 149" fill="none" xmlns="http://www.w3.org/2000/svg">
<circle opacity="0.4" cx="4.5" cy="81.1445" r="4.5" fill="#00BEF0"/>
<circle opacity="0.4" cx="167" cy="21.6445" r="3" fill="#00BEF0"/>
<circle opacity="0.4" cx="54" cy="135.645" r="3" fill="#00BEF0"/>
<circle opacity="0.4" cx="162.5" cy="99.1445" r="4.5" fill="#00BEF0"/>
<circle opacity="0.4" cx="10.5" cy="36.1445" r="1.5" fill="#00BEF0"/>
<circle opacity="0.4" cx="89.5" cy="14.1445" r="4.5" fill="#00BEF0"/>
<rect opacity="0.4" x="24" y="6.12891" width="5" height="16" transform="rotate(-29.7913 24 6.12891)" fill="#E8505B"/>
<rect opacity="0.4" x="183.493" y="50.6445" width="5" height="9.10881" transform="rotate(55.3447 183.493 50.6445)" fill="#E8505B"/>
<rect opacity="0.4" x="129.564" y="10.6445" width="5" height="5.07667" transform="rotate(30.3427 129.564 10.6445)" fill="#E8505B"/>
<rect opacity="0.4" x="57.3906" width="5" height="14.2145" transform="rotate(1.14562 57.3906 0)" fill="#E8505B"/>
<rect opacity="0.4" x="87.2842" y="134.645" width="5" height="14.2145" transform="rotate(1.14562 87.2842 134.645)" fill="#E8505B"/>
<rect opacity="0.4" x="144" y="134.227" width="2.17793" height="5.64712" transform="rotate(-46.5311 144 134.227)" fill="#E8505B"/>
<rect opacity="0.4" x="23.083" y="118.645" width="5" height="16" transform="rotate(30.3427 23.083 118.645)" fill="#E8505B"/>
</svg>
